{"metric":"moisture percentage","sensor":1,"time":"2021-10-26T17:42:14.467","measurement":579},
{"metric":"moisture percentage","sensor":1,"time":"2021-10-26T17:42:14.479","measurement":578},
{"metric":"moisture percentage","sensor":1,"time":"2021-10-26T17:42:14.488","measurement":579},
{"metric":"moisture percentage","sensor":1,"time":"2021-10-26T17:42:14.499","measurement":579},
{"metric":"moisture percentage","sensor":1,"time":"2021-10-26T17:42:14.508","measurement":579},
{"metric":"moisture percentage","sensor":1,"time":"2021-10-26T17:42:14.520","measurement":579},
{"metric":"moisture percentage","sensor":1,"time":"2021-10-26T17:42:14.528","measurement":579},
{"metric":"moisture percentage","sensor":1,"time":"2021-10-26T17:42:14.540","measurement":579},
{"metric":"moisture percentage","sensor":1,"time":"2021-10-26T17:42:14.548","measurement":579},
{"metric":"moisture percentage","sensor":1,"time":"2021-10-26T17:42:14.561","measurement":578},
{"metric":"moisture percentage","sensor":1,"time":"2021-10-26T17:42:14.570","measurement":579},
{"metric":"moisture percentage","sensor":1,"time":"2021-10-26T17:42:14.582","measurement":579},
{"metric":"moisture percentage","sensor":1,"time":"2021-10-26T17:42:14.590","measurement":579},
{"metric":"moisture percentage","sensor":1,"time":"2021-10-26T17:42:14.602","measurement":579},
{"metric":"moisture percentage","sensor":1,"time":"2021-10-26T17:42:14.610","measurement":579},
{"metric":"moisture percentage","sensor":1,"time":"2021-10-26T17:42:14.623","measurement":579},
{"metric":"moisture percentage","sensor":1,"time":"2021-10-26T17:42:14.631","measurement":579},
{"metric":"moisture percentage","sensor":1,"time":"2021-10-26T17:42:14.643","measurement":578},
{"metric":"moisture percentage","sensor":1,"time":"2021-10-26T17:42:14.651","measurement":579},
{"metric":"moisture percentage","sensor":1,"time":"2021-10-26T17:42:14.664","measurement":578},
{"metric":"moisture percentage","sensor":1,"time":"2021-10-26T17:42:14.672","measurement":579},
{"metric":"moisture percentage","sensor":1,"time":"2021-10-26T17:42:14.684","measurement":579},
{"metric":"moisture percentage","sensor":1,"time":"2021-10-26T17:42:14.693","measurement":578},
{"metric":"moisture percentage","sensor":1,"time":"2021-10-26T17:42:14.705","measurement":579},
{"metric":"moisture percentage","sensor":1,"time":"2021-10-26T17:42:14.713","measurement":579},
{"metric":"moisture percentage","sensor":1,"time":"2021-10-26T17:42:14.725","measurement":579},
{"metric":"moisture percentage","sensor":1,"time":"2021-10-26T17:42:14.733","measurement":579},
{"metric":"moisture percentage","sensor":1,"time":"2021-10-26T17:42:14.746","measurement":579},
{"metric":"moisture percentage","sensor":1,"time":"2021-10-26T17:42:14.754","measurement":579},
{"metric":"moisture percentage","sensor":1,"time":"2021-10-26T17:42:14.766","measurement":579},
{"metric":"moisture percentage","sensor":1,"time":"2021-10-26T17:42:14.774","measurement":579},
{"metric":"moisture percentage","sensor":1,"time":"2021-10-26T17:42:14.786","measurement":579},
{"metric":"moisture percentage","sensor":1,"time":"2021-10-26T17:42:14.795","measurement":579},
{"metric":"moisture percentage","sensor":1,"time":"2021-10-26T17:42:14.807","measurement":579},
{"metric":"moisture percentage","sensor":1,"time":"2021-10-26T17:42:14.815","measurement":579},
{"metric":"moisture percentage","sensor":1,"time":"2021-10-26T17:42:14.827","measurement":579},
{"metric":"moisture percentage","sensor":1,"time":"2021-10-26T17:42:14.836","measurement":580},
{"metric":"moisture percentage","sensor":1,"time":"2021-10-26T17:42:14.848","measurement":579},
{"metric":"moisture percentage","sensor":1,"time":"2021-10-26T17:42:14.856","measurement":578},
{"metric":"moisture percentage","sensor":1,"time":"2021-10-26T17:42:14.868","measurement":579},
{"metric":"moisture percentage","sensor":1,"time":"2021-10-26T17:42:14.877","measurement":579},
{"metric":"moisture percentage","sensor":1,"time":"2021-10-26T17:42:14.891","measurement":579},
{"metric":"moisture percentage","sensor":1,"time":"2021-10-26T17:42:14.899","measurement":579},
{"metric":"moisture percentage","sensor":1,"time":"2021-10-26T17:42:14.910","measurement":578},
{"metric":"moisture percentage","sensor":1,"time":"2021-10-26T17:42:14.918","measurement":580},
{"metric":"moisture percentage","sensor":1,"time":"2021-10-26T17:42:14.930","measurement":579},
{"metric":"moisture percentage","sensor":1,"time":"2021-10-26T17:42:14.938","measurement":579},
{"metric":"moisture percentage","sensor":1,"time":"2021-10-26T17:42:14.950","measurement":579},
{"metric":"moisture percentage","sensor":1,"time":"2021-10-26T17:42:14.959","measurement":579},
{"metric":"moisture percentage","sensor":1,"time":"2021-10-26T17:42:14.971","measurement":579},
{"metric":"moisture percentage","sensor":1,"time":"2021-10-26T17:42:14.979","measurement":579},
{"metric":"moisture percentage","sensor":1,"time":"2021-10-26T17:42:14.991","measurement":579},
{"metric":"moisture percentage","sensor":1,"time":"2021-10-26T17:42:14.999","measurement":579},
{"metric":"moisture percentage","sensor":1,"time":"2021-10-26T17:42:15.012","measurement":579},
{"metric":"moisture percentage","sensor":1,"time":"2021-10-26T17:42:15.020","measurement":579},
{"metric":"moisture percentage","sensor":1,"time":"2021-10-26T17:42:15.032","measurement":579},
{"metric":"moisture percentage","sensor":1,"time":"2021-10-26T17:42:15.040","measurement":579},
{"metric":"moisture percentage","sensor":1,"time":"2021-10-26T17:42:15.053","measurement":579},
{"metric":"moisture percentage","sensor":1,"time":"2021-10-26T17:42:15.061","measurement":579},
{"metric":"moisture percentage","sensor":1,"time":"2021-10-26T17:42:15.073","measurement":579},
{"metric":"moisture percentage","sensor":1,"time":"2021-10-26T17:42:15.081","measurement":579},
{"metric":"moisture percentage","sensor":1,"time":"2021-10-26T17:42:15.093","measurement":578},
{"metric":"moisture percentage","sensor":1,"time":"2021-10-26T17:42:15.102","measurement":579},
{"metric":"moisture percentage","sensor":1,"time":"2021-10-26T17:42:15.114","measurement":579},
{"metric":"moisture percentage","sensor":1,"time":"2021-10-26T17:42:15.122","measurement":579},
{"metric":"moisture percentage","sensor":1,"time":"2021-10-26T17:42:15.134","measurement":579},
{"metric":"moisture percentage","sensor":1,"time":"2021-10-26T17:42:15.143","measurement":578},
{"metric":"moisture percentage","sensor":1,"time":"2021-10-26T17:42:15.155","measurement":579},
{"metric":"moisture percentage","sensor":1,"time":"2021-10-26T17:42:15.167","measurement":579},
{"metric":"moisture percentage","sensor":1,"time":"2021-10-26T17:42:15.175","measurement":579},
{"metric":"moisture percentage","sensor":1,"time":"2021-10-26T17:42:15.188","measurement":579},
{"metric":"moisture percentage","sensor":1,"time":"2021-10-26T17:42:15.196","measurement":579},
{"metric":"moisture percentage","sensor":1,"time":"2021-10-26T17:42:15.208","measurement":579},
{"metric":"moisture percentage","sensor":1,"time":"2021-10-26T17:42:15.216","measurement":579},
{"metric":"moisture percentage","sensor":1,"time":"2021-10-26T17:42:15.228","measurement":578},
{"metric":"moisture percentage","sensor":1,"time":"2021-10-26T17:42:15.236","measurement":579},
{"metric":"moisture percentage","sensor":1,"time":"2021-10-26T17:42:15.249","measurement":579},
{"metric":"moisture percentage","sensor":1,"time":"2021-10-26T17:42:15.258","measurement":579},
{"metric":"moisture percentage","sensor":1,"time":"2021-10-26T17:42:15.270","measurement":579},
{"metric":"moisture percentage","sensor":1,"time":"2021-10-26T17:42:15.278","measurement":578},
{"metric":"moisture percentage","sensor":1,"time":"2021-10-26T17:42:15.290","measurement":579},
{"metric":"moisture percentage","sensor":1,"time":"2021-10-26T17:42:15.299","measurement":579},
{"metric":"moisture percentage","sensor":1,"time":"2021-10-26T17:42:15.311","measurement":579},
{"metric":"moisture percentage","sensor":1,"time":"2021-10-26T17:42:15.319","measurement":579},
{"metric":"moisture percentage","sensor":1,"time":"2021-10-26T17:42:15.331","measurement":579},
{"metric":"moisture percentage","sensor":1,"time":"2021-10-26T17:42:15.340","measurement":578},
{"metric":"moisture percentage","sensor":1,"time":"2021-10-26T17:42:15.352","measurement":579},
{"metric":"moisture percentage","sensor":1,"time":"2021-10-26T17:42:15.360","measurement":579},
{"metric":"moisture percentage","sensor":1,"time":"2021-10-26T17:42:15.372","measurement":579},
{"metric":"moisture percentage","sensor":1,"time":"2021-10-26T17:42:15.380","measurement":579},
{"metric":"moisture percentage","sensor":1,"time":"2021-10-26T17:42:15.393","measurement":579},
{"metric":"moisture percentage","sensor":1,"time":"2021-10-26T17:42:15.401","measurement":579},
{"metric":"moisture percentage","sensor":1,"time":"2021-10-26T17:42:15.413","measurement":579},
{"metric":"moisture percentage","sensor":1,"time":"2021-10-26T17:42:15.421","measurement":579},
{"metric":"moisture percentage","sensor":1,"time":"2021-10-26T17:42:15.434","measurement":579},
{"metric":"moisture percentage","sensor":1,"time":"2021-10-26T17:42:15.442","measurement":579},
{"metric":"moisture percentage","sensor":1,"time":"2021-10-26T17:42:15.454","measurement":579},
{"metric":"moisture percentage","sensor":1,"time":"2021-10-26T17:42:15.462","measurement":579},
{"metric":"moisture percentage","sensor":1,"time":"2021-10-26T17:42:15.475","measurement":579},
{"metric":"moisture percentage","sensor":1,"time":"2021-10-26T17:42:15.483","measurement":579},
{"metric":"moisture percentage","sensor":1,"time":"2021-10-26T17:42:15.495","measurement":578},
{"metric":"moisture percentage","sensor":1,"time":"2021-10-26T17:42:15.503","measurement":579},
{"metric":"moisture percentage","sensor":1,"time":"2021-10-26T17:42:15.516","measurement":579},
{"metric":"moisture percentage","sensor":1,"time":"2021-10-26T17:42:15.524","measurement":579},
{"metric":"moisture percentage","sensor":1,"time":"2021-10-26T17:42:15.536","measurement":579},
{"metric":"moisture percentage","sensor":1,"time":"2021-10-26T17:42:15.544","measurement":578},
{"metric":"moisture percentage","sensor":1,"time":"2021-10-26T17:42:15.558","measurement":579},
{"metric":"moisture percentage","sensor":1,"time":"2021-10-26T17:42:15.565","measurement":579},
{"metric":"moisture percentage","sensor":1,"time":"2021-10-26T17:42:15.577","measurement":578},
{"metric":"moisture percentage","sensor":1,"time":"2021-10-26T17:42:15.586","measurement":579},
{"metric":"moisture percentage","sensor":1,"time":"2021-10-26T17:42:15.598","measurement":579},
{"metric":"moisture percentage","sensor":1,"time":"2021-10-26T17:42:15.606","measurement":579},
{"metric":"moisture percentage","sensor":1,"time":"2021-10-26T17:42:15.618","measurement":579},
{"metric":"moisture percentage","sensor":1,"time":"2021-10-26T17:42:15.626","measurement":578},
{"metric":"moisture percentage","sensor":1,"time":"2021-10-26T17:42:15.639","measurement":580},
{"metric":"moisture percentage","sensor":1,"time":"2021-10-26T17:42:15.646","measurement":579},
{"metric":"moisture percentage","sensor":1,"time":"2021-10-26T17:42:15.659","measurement":578},
{"metric":"moisture percentage","sensor":1,"time":"2021-10-26T17:42:15.667","measurement":579},
{"metric":"moisture percentage","sensor":1,"time":"2021-10-26T17:42:15.679","measurement":579},
{"metric":"moisture percentage","sensor":1,"time":"2021-10-26T17:42:15.687","measurement":579},
{"metric":"moisture percentage","sensor":1,"time":"2021-10-26T17:42:15.699","measurement":579},
{"metric":"moisture percentage","sensor":1,"time":"2021-10-26T17:42:15.708","measurement":579},
{"metric":"moisture percentage","sensor":1,"time":"2021-10-26T17:42:15.720","measurement":579},
{"metric":"moisture percentage","sensor":1,"time":"2021-10-26T17:42:15.728","measurement":579},
{"metric":"moisture percentage","sensor":1,"time":"2021-10-26T17:42:15.740","measurement":579},
{"metric":"moisture percentage","sensor":1,"time":"2021-10-26T17:42:15.748","measurement":579},
{"metric":"moisture percentage","sensor":1,"time":"2021-10-26T17:42:15.761","measurement":579},
{"metric":"moisture percentage","sensor":1,"time":"2021-10-26T17:42:15.770","measurement":579},
{"metric":"moisture percentage","sensor":1,"time":"2021-10-26T17:42:15.781","measurement":579},
{"metric":"moisture percentage","sensor":1,"time":"2021-10-26T17:42:15.789","measurement":578},
{"metric":"moisture percentage","sensor":1,"time":"2021-10-26T17:42:15.802","measurement":579},
{"metric":"moisture percentage","sensor":1,"time":"2021-10-26T17:42:15.810","measurement":579},
{"metric":"moisture percentage","sensor":1,"time":"2021-10-26T17:42:15.822","measurement":578},
{"metric":"moisture percentage","sensor":1,"time":"2021-10-26T17:42:15.831","measurement":579},
{"metric":"moisture percentage","sensor":1,"time":"2021-10-26T17:42:15.843","measurement":579},
{"metric":"moisture percentage","sensor":1,"time":"2021-10-26T17:42:15.855","measurement":579},
{"metric":"moisture percentage","sensor":1,"time":"2021-10-26T17:42:15.864","measurement":579},
{"metric":"moisture percentage","sensor":1,"time":"2021-10-26T17:42:15.876","measurement":578},
{"metric":"moisture percentage","sensor":1,"time":"2021-10-26T17:42:15.884","measurement":579},
{"metric":"moisture percentage","sensor":1,"time":"2021-10-26T17:42:15.896","measurement":579},
{"metric":"moisture percentage","sensor":1,"time":"2021-10-26T17:42:15.905","measurement":579},
{"metric":"moisture percentage","sensor":1,"time":"2021-10-26T17:42:15.917","measurement":579},
{"metric":"moisture percentage","sensor":1,"time":"2021-10-26T17:42:15.927","measurement":578},
{"metric":"moisture percentage","sensor":1,"time":"2021-10-26T17:42:15.939","measurement":579},
{"metric":"moisture percentage","sensor":1,"time":"2021-10-26T17:42:15.947","measurement":579},
{"metric":"moisture percentage","sensor":1,"time":"2021-10-26T17:42:15.958","measurement":578},
{"metric":"moisture percentage","sensor":1,"time":"2021-10-26T17:42:15.966","measurement":579},
{"metric":"moisture percentage","sensor":1,"time":"2021-10-26T17:42:15.978","measurement":578},
{"metric":"moisture percentage","sensor":1,"time":"2021-10-26T17:42:15.987","measurement":579},
{"metric":"moisture percentage","sensor":1,"time":"2021-10-26T17:42:15.999","measurement":579},
{"metric":"moisture percentage","sensor":1,"time":"2021-10-26T17:42:16.007","measurement":578},
{"metric":"moisture percentage","sensor":1,"time":"2021-10-26T17:42:16.019","measurement":579},
{"metric":"moisture percentage","sensor":1,"time":"2021-10-26T17:42:16.028","measurement":579},
{"metric":"moisture percentage","sensor":1,"time":"2021-10-26T17:42:16.040","measurement":580},
{"metric":"moisture percentage","sensor":1,"time":"2021-10-26T17:42:16.048","measurement":579},
{"metric":"moisture percentage","sensor":1,"time":"2021-10-26T17:42:16.060","measurement":579},
{"metric":"moisture percentage","sensor":1,"time":"2021-10-26T17:42:16.068","measurement":579},
{"metric":"moisture percentage","sensor":1,"time":"2021-10-26T17:42:16.080","measurement":579},
{"metric":"moisture percentage","sensor":1,"time":"2021-10-26T17:42:16.089","measurement":579},
{"metric":"moisture percentage","sensor":1,"time":"2021-10-26T17:42:16.101","measurement":579},
{"metric":"moisture percentage","sensor":1,"time":"2021-10-26T17:42:16.109","measurement":579},
{"metric":"moisture percentage","sensor":1,"time":"2021-10-26T17:42:16.122","measurement":579},
{"metric":"moisture percentage","sensor":1,"time":"2021-10-26T17:42:16.130","measurement":579},
{"metric":"moisture percentage","sensor":1,"time":"2021-10-26T17:42:16.142","measurement":579},
{"metric":"moisture percentage","sensor":1,"time":"2021-10-26T17:42:16.150","measurement":579},
{"metric":"moisture percentage","sensor":1,"time":"2021-10-26T17:42:16.162","measurement":579},
{"metric":"moisture percentage","sensor":1,"time":"2021-10-26T17:42:16.171","measurement":579},
{"metric":"moisture percentage","sensor":1,"time":"2021-10-26T17:42:16.183","measurement":579},
{"metric":"moisture percentage","sensor":1,"time":"2021-10-26T17:42:16.191","measurement":579},
{"metric":"moisture percentage","sensor":1,"time":"2021-10-26T17:42:16.203","measurement":579},
{"metric":"moisture percentage","sensor":1,"time":"2021-10-26T17:42:16.212","measurement":579},
{"metric":"moisture percentage","sensor":1,"time":"2021-10-26T17:42:16.224","measurement":579},
{"metric":"moisture percentage","sensor":1,"time":"2021-10-26T17:42:16.232","measurement":580},
{"metric":"moisture percentage","sensor":1,"time":"2021-10-26T17:42:16.245","measurement":579},
{"metric":"moisture percentage","sensor":1,"time":"2021-10-26T17:42:16.253","measurement":579},
{"metric":"moisture percentage","sensor":1,"time":"2021-10-26T17:42:16.265","measurement":579},
{"metric":"moisture percentage","sensor":1,"time":"2021-10-26T17:42:16.273","measurement":579},
{"metric":"moisture percentage","sensor":1,"time":"2021-10-26T17:42:16.285","measurement":579},
{"metric":"moisture percentage","sensor":1,"time":"2021-10-26T17:42:16.294","measurement":579},
{"metric":"moisture percentage","sensor":1,"time":"2021-10-26T17:42:16.307","measurement":579},
{"metric":"moisture percentage","sensor":1,"time":"2021-10-26T17:42:16.315","measurement":579},
{"metric":"moisture percentage","sensor":1,"time":"2021-10-26T17:42:16.326","measurement":579},
{"metric":"moisture percentage","sensor":1,"time":"2021-10-26T17:42:16.335","measurement":579},
{"metric":"moisture percentage","sensor":1,"time":"2021-10-26T17:42:16.347","measurement":579},
{"metric":"moisture percentage","sensor":1,"time":"2021-10-26T17:42:16.355","measurement":579},
{"metric":"moisture percentage","sensor":1,"time":"2021-10-26T17:42:16.368","measurement":579},
{"metric":"moisture percentage","sensor":1,"time":"2021-10-26T17:42:16.376","measurement":578},
{"metric":"moisture percentage","sensor":1,"time":"2021-10-26T17:42:16.388","measurement":579},
{"metric":"moisture percentage","sensor":1,"time":"2021-10-26T17:42:16.396","measurement":579},
{"metric":"moisture percentage","sensor":1,"time":"2021-10-26T17:42:16.409","measurement":579},
{"metric":"moisture percentage","sensor":1,"time":"2021-10-26T17:42:16.417","measurement":579},
{"metric":"moisture percentage","sensor":1,"time":"2021-10-26T17:42:16.429","measurement":579},
{"metric":"moisture percentage","sensor":1,"time":"2021-10-26T17:42:16.437","measurement":579},
{"metric":"moisture percentage","sensor":1,"time":"2021-10-26T17:42:16.450","measurement":579},
{"metric":"moisture percentage","sensor":1,"time":"2021-10-26T17:42:16.458","measurement":579},
{"metric":"moisture percentage","sensor":1,"time":"2021-10-26T17:42:16.470","measurement":579},
{"metric":"moisture percentage","sensor":1,"time":"2021-10-26T17:42:16.478","measurement":579},
{"metric":"moisture percentage","sensor":1,"time":"2021-10-26T17:42:16.491","measurement":579},
{"metric":"moisture percentage","sensor":1,"time":"2021-10-26T17:42:16.499","measurement":579},
{"metric":"moisture percentage","sensor":1,"time":"2021-10-26T17:42:16.511","measurement":579},
{"metric":"moisture percentage","sensor":1,"time":"2021-10-26T17:42:16.520","measurement":579},
{"metric":"moisture percentage","sensor":1,"time":"2021-10-26T17:42:16.532","measurement":579},
{"metric":"moisture percentage","sensor":1,"time":"2021-10-26T17:42:16.539","measurement":578},
{"metric":"moisture percentage","sensor":1,"time":"2021-10-26T17:42:16.552","measurement":579},
{"metric":"moisture percentage","sensor":1,"time":"2021-10-26T17:42:16.564","measurement":579},
{"metric":"moisture percentage","sensor":1,"time":"2021-10-26T17:42:16.572","measurement":579},
{"metric":"moisture percentage","sensor":1,"time":"2021-10-26T17:42:16.584","measurement":579},
{"metric":"moisture percentage","sensor":1,"time":"2021-10-26T17:42:16.592","measurement":578},
{"metric":"moisture percentage","sensor":1,"time":"2021-10-26T17:42:16.606","measurement":579},
{"metric":"moisture percentage","sensor":1,"time":"2021-10-26T17:42:16.614","measurement":579},
{"metric":"moisture percentage","sensor":1,"time":"2021-10-26T17:42:16.625","measurement":578},
{"metric":"moisture percentage","sensor":1,"time":"2021-10-26T17:42:16.634","measurement":579},
{"metric":"moisture percentage","sensor":1,"time":"2021-10-26T17:42:16.646","measurement":579},
{"metric":"moisture percentage","sensor":1,"time":"2021-10-26T17:42:16.654","measurement":579},
{"metric":"moisture percentage","sensor":1,"time":"2021-10-26T17:42:16.667","measurement":579},
{"metric":"moisture percentage","sensor":1,"time":"2021-10-26T17:42:16.675","measurement":579},
{"metric":"moisture percentage","sensor":1,"time":"2021-10-26T17:42:16.687","measurement":579},
{"metric":"moisture percentage","sensor":1,"time":"2021-10-26T17:42:16.695","measurement":579},
{"metric":"moisture percentage","sensor":1,"time":"2021-10-26T17:42:16.707","measurement":579},
{"metric":"moisture percentage","sensor":1,"time":"2021-10-26T17:42:16.716","measurement":579},
{"metric":"moisture percentage","sensor":1,"time":"2021-10-26T17:42:16.728","measurement":579},
{"metric":"moisture percentage","sensor":1,"time":"2021-10-26T17:42:16.736","measurement":579},
{"metric":"moisture percentage","sensor":1,"time":"2021-10-26T17:42:16.748","measurement":579},
{"metric":"moisture percentage","sensor":1,"time":"2021-10-26T17:42:16.757","measurement":579},
{"metric":"moisture percentage","sensor":1,"time":"2021-10-26T17:42:16.769","measurement":579},
{"metric":"moisture percentage","sensor":1,"time":"2021-10-26T17:42:16.777","measurement":578},
{"metric":"moisture percentage","sensor":1,"time":"2021-10-26T17:42:16.789","measurement":579},
{"metric":"moisture percentage","sensor":1,"time":"2021-10-26T17:42:16.798","measurement":579},
{"metric":"moisture percentage","sensor":1,"time":"2021-10-26T17:42:16.810","measurement":579},
{"metric":"moisture percentage","sensor":1,"time":"2021-10-26T17:42:16.818","measurement":579},
{"metric":"moisture percentage","sensor":1,"time":"2021-10-26T17:42:16.830","measurement":579},
{"metric":"moisture percentage","sensor":1,"time":"2021-10-26T17:42:16.838","measurement":579},
{"metric":"moisture percentage","sensor":1,"time":"2021-10-26T17:42:16.850","measurement":579},
{"metric":"moisture percentage","sensor":1,"time":"2021-10-26T17:42:16.859","measurement":578},
{"metric":"moisture percentage","sensor":1,"time":"2021-10-26T17:42:16.871","measurement":579},
{"metric":"moisture percentage","sensor":1,"time":"2021-10-26T17:42:16.879","measurement":579},
{"metric":"moisture percentage","sensor":1,"time":"2021-10-26T17:42:16.891","measurement":578},
{"metric":"moisture percentage","sensor":1,"time":"2021-10-26T17:42:16.900","measurement":579},
{"metric":"moisture percentage","sensor":1,"time":"2021-10-26T17:42:16.912","measurement":579},
{"metric":"moisture percentage","sensor":1,"time":"2021-10-26T17:42:16.920","measurement":579},
{"metric":"moisture percentage","sensor":1,"time":"2021-10-26T17:42:16.932","measurement":579},
{"metric":"moisture percentage","sensor":1,"time":"2021-10-26T17:42:16.941","measurement":579},
{"metric":"moisture percentage","sensor":1,"time":"2021-10-26T17:42:16.953","measurement":579},
{"metric":"moisture percentage","sensor":1,"time":"2021-10-26T17:42:16.961","measurement":579},
{"metric":"moisture percentage","sensor":1,"time":"2021-10-26T17:42:16.973","measurement":579},
{"metric":"moisture percentage","sensor":1,"time":"2021-10-26T17:42:16.982","measurement":579},
{"metric":"moisture percentage","sensor":1,"time":"2021-10-26T17:42:16.994","measurement":579},
{"metric":"moisture percentage","sensor":1,"time":"2021-10-26T17:42:17.002","measurement":579},
{"metric":"moisture percentage","sensor":1,"time":"2021-10-26T17:42:17.014","measurement":579},
{"metric":"moisture percentage","sensor":1,"time":"2021-10-26T17:42:17.023","measurement":579},
{"metric":"moisture percentage","sensor":1,"time":"2021-10-26T17:42:17.035","measurement":580},
{"metric":"moisture percentage","sensor":1,"time":"2021-10-26T17:42:17.043","measurement":579},
{"metric":"moisture percentage","sensor":1,"time":"2021-10-26T17:42:17.055","measurement":579},
{"metric":"moisture percentage","sensor":1,"time":"2021-10-26T17:42:17.063","measurement":579},
{"metric":"moisture percentage","sensor":1,"time":"2021-10-26T17:42:17.076","measurement":579},
{"metric":"moisture percentage","sensor":1,"time":"2021-10-26T17:42:17.084","measurement":579},
{"metric":"moisture percentage","sensor":1,"time":"2021-10-26T17:42:17.097","measurement":578},
{"metric":"moisture percentage","sensor":1,"time":"2021-10-26T17:42:17.105","measurement":579},
{"metric":"moisture percentage","sensor":1,"time":"2021-10-26T17:42:17.117","measurement":579},
{"metric":"moisture percentage","sensor":1,"time":"2021-10-26T17:42:17.125","measurement":579},
{"metric":"moisture percentage","sensor":1,"time":"2021-10-26T17:42:17.137","measurement":579},
{"metric":"moisture percentage","sensor":1,"time":"2021-10-26T17:42:17.145","measurement":579},
{"metric":"moisture percentage","sensor":1,"time":"2021-10-26T17:42:17.157","measurement":579},
{"metric":"moisture percentage","sensor":1,"time":"2021-10-26T17:42:17.166","measurement":579},
{"metric":"moisture percentage","sensor":1,"time":"2021-10-26T17:42:17.178","measurement":579},
{"metric":"moisture percentage","sensor":1,"time":"2021-10-26T17:42:17.186","measurement":579},
{"metric":"moisture percentage","sensor":1,"time":"2021-10-26T17:42:17.198","measurement":579},
{"metric":"moisture percentage","sensor":1,"time":"2021-10-26T17:42:17.207","measurement":579},
{"metric":"moisture percentage","sensor":1,"time":"2021-10-26T17:42:17.220","measurement":579},
{"metric":"moisture percentage","sensor":1,"time":"2021-10-26T17:42:17.228","measurement":579},
{"metric":"moisture percentage","sensor":1,"time":"2021-10-26T17:42:17.240","measurement":579},
{"metric":"moisture percentage","sensor":1,"time":"2021-10-26T17:42:17.249","measurement":579},
{"metric":"moisture percentage","sensor":1,"time":"2021-10-26T17:42:17.261","measurement":579},
{"metric":"moisture percentage","sensor":1,"time":"2021-10-26T17:42:17.273","measurement":579},
{"metric":"moisture percentage","sensor":1,"time":"2021-10-26T17:42:17.281","measurement":579},
{"metric":"moisture percentage","sensor":1,"time":"2021-10-26T17:42:17.294","measurement":579},
{"metric":"moisture percentage","sensor":1,"time":"2021-10-26T17:42:17.302","measurement":579},
{"metric":"moisture percentage","sensor":1,"time":"2021-10-26T17:42:17.314","measurement":579},
{"metric":"moisture percentage","sensor":1,"time":"2021-10-26T17:42:17.322","measurement":579},
{"metric":"moisture percentage","sensor":1,"time":"2021-10-26T17:42:17.334","measurement":579},
{"metric":"moisture percentage","sensor":1,"time":"2021-10-26T17:42:17.342","measurement":578},
{"metric":"moisture percentage","sensor":1,"time":"2021-10-26T17:42:17.354","measurement":579},
{"metric":"moisture percentage","sensor":1,"time":"2021-10-26T17:42:17.363","measurement":579},
{"metric":"moisture percentage","sensor":1,"time":"2021-10-26T17:42:17.375","measurement":579},
{"metric":"moisture percentage","sensor":1,"time":"2021-10-26T17:42:17.383","measurement":579},
{"metric":"moisture percentage","sensor":1,"time":"2021-10-26T17:42:17.395","measurement":579},
{"metric":"moisture percentage","sensor":1,"time":"2021-10-26T17:42:17.403","measurement":579},
{"metric":"moisture percentage","sensor":1,"time":"2021-10-26T17:42:17.416","measurement":579},
{"metric":"moisture percentage","sensor":1,"time":"2021-10-26T17:42:17.424","measurement":579},
{"metric":"moisture percentage","sensor":1,"time":"2021-10-26T17:42:17.436","measurement":579},
{"metric":"moisture percentage","sensor":1,"time":"2021-10-26T17:42:17.444","measurement":579},
{"metric":"moisture percentage","sensor":1,"time":"2021-10-26T17:42:17.457","measurement":579},
{"metric":"moisture percentage","sensor":1,"time":"2021-10-26T17:42:17.465","measurement":579},
{"metric":"moisture percentage","sensor":1,"time":"2021-10-26T17:42:17.477","measurement":579},
{"metric":"moisture percentage","sensor":1,"time":"2021-10-26T17:42:17.485","measurement":579},
{"metric":"moisture percentage","sensor":1,"time":"2021-10-26T17:42:17.498","measurement":579},
{"metric":"moisture percentage","sensor":1,"time":"2021-10-26T17:42:17.506","measurement":579},
{"metric":"moisture percentage","sensor":1,"time":"2021-10-26T17:42:17.518","measurement":579},
{"metric":"moisture percentage","sensor":1,"time":"2021-10-26T17:42:17.526","measurement":579},
{"metric":"moisture percentage","sensor":1,"time":"2021-10-26T17:42:17.539","measurement":579},
{"metric":"moisture percentage","sensor":1,"time":"2021-10-26T17:42:17.547","measurement":579},
{"metric":"moisture percentage","sensor":1,"time":"2021-10-26T17:42:17.559","measurement":578},
{"metric":"moisture percentage","sensor":1,"time":"2021-10-26T17:42:17.568","measurement":579},
{"metric":"moisture percentage","sensor":1,"time":"2021-10-26T17:42:17.580","measurement":579},
{"metric":"moisture percentage","sensor":1,"time":"2021-10-26T17:42:17.588","measurement":579},
{"metric":"moisture percentage","sensor":1,"time":"2021-10-26T17:42:17.600","measurement":579},
{"metric":"moisture percentage","sensor":1,"time":"2021-10-26T17:42:17.609","measurement":578},
{"metric":"moisture percentage","sensor":1,"time":"2021-10-26T17:42:17.621","measurement":579},
{"metric":"moisture percentage","sensor":1,"time":"2021-10-26T17:42:17.629","measurement":579},
{"metric":"moisture percentage","sensor":1,"time":"2021-10-26T17:42:17.641","measurement":579},
{"metric":"moisture percentage","sensor":1,"time":"2021-10-26T17:42:17.649","measurement":579},
{"metric":"moisture percentage","sensor":1,"time":"2021-10-26T17:42:17.662","measurement":579},
{"metric":"moisture percentage","sensor":1,"time":"2021-10-26T17:42:17.670","measurement":579},
{"metric":"moisture percentage","sensor":1,"time":"2021-10-26T17:42:17.682","measurement":579},
{"metric":"moisture percentage","sensor":1,"time":"2021-10-26T17:42:17.690","measurement":579},
{"metric":"moisture percentage","sensor":1,"time":"2021-10-26T17:42:17.703","measurement":579},
{"metric":"moisture percentage","sensor":1,"time":"2021-10-26T17:42:17.711","measurement":579},
{"metric":"moisture percentage","sensor":1,"time":"2021-10-26T17:42:17.723","measurement":579},
{"metric":"moisture percentage","sensor":1,"time":"2021-10-26T17:42:17.731","measurement":579},
{"metric":"moisture percentage","sensor":1,"time":"2021-10-26T17:42:17.744","measurement":579},
{"metric":"moisture percentage","sensor":1,"time":"2021-10-26T17:42:17.752","measurement":580},
{"metric":"moisture percentage","sensor":1,"time":"2021-10-26T17:42:17.764","measurement":579},
{"metric":"moisture percentage","sensor":1,"time":"2021-10-26T17:42:17.772","measurement":579},
{"metric":"moisture percentage","sensor":1,"time":"2021-10-26T17:42:17.785","measurement":579},
{"metric":"moisture percentage","sensor":1,"time":"2021-10-26T17:42:17.793","measurement":580},
{"metric":"moisture percentage","sensor":1,"time":"2021-10-26T17:42:17.805","measurement":579},
{"metric":"moisture percentage","sensor":1,"time":"2021-10-26T17:42:17.813","measurement":579},
{"metric":"moisture percentage","sensor":1,"time":"2021-10-26T17:42:17.826","measurement":578},
{"metric":"moisture percentage","sensor":1,"time":"2021-10-26T17:42:17.834","measurement":580},
{"metric":"moisture percentage","sensor":1,"time":"2021-10-26T17:42:17.846","measurement":579},
{"metric":"moisture percentage","sensor":1,"time":"2021-10-26T17:42:17.854","measurement":578},
{"metric":"moisture percentage","sensor":1,"time":"2021-10-26T17:42:17.867","measurement":579},
{"metric":"moisture percentage","sensor":1,"time":"2021-10-26T17:42:17.875","measurement":579},
{"metric":"moisture percentage","sensor":1,"time":"2021-10-26T17:42:17.887","measurement":579},
{"metric":"moisture percentage","sensor":1,"time":"2021-10-26T17:42:17.895","measurement":579},
{"metric":"moisture percentage","sensor":1,"time":"2021-10-26T17:42:17.908","measurement":579},
{"metric":"moisture percentage","sensor":1,"time":"2021-10-26T17:42:17.916","measurement":579},
{"metric":"moisture percentage","sensor":1,"time":"2021-10-26T17:42:17.928","measurement":579},
{"metric":"moisture percentage","sensor":1,"time":"2021-10-26T17:42:17.936","measurement":579},
{"metric":"moisture percentage","sensor":1,"time":"2021-10-26T17:42:17.949","measurement":579},
{"metric":"moisture percentage","sensor":1,"time":"2021-10-26T17:42:17.957","measurement":579},
{"metric":"moisture percentage","sensor":1,"time":"2021-10-26T17:42:17.969","measurement":579},
{"metric":"moisture percentage","sensor":1,"time":"2021-10-26T17:42:17.982","measurement":579},
{"metric":"moisture percentage","sensor":1,"time":"2021-10-26T17:42:17.990","measurement":579},
{"metric":"moisture percentage","sensor":1,"time":"2021-10-26T17:42:18.002","measurement":579},
{"metric":"moisture percentage","sensor":1,"time":"2021-10-26T17:42:18.010","measurement":578},
{"metric":"moisture percentage","sensor":1,"time":"2021-10-26T17:42:18.024","measurement":579},
{"metric":"moisture percentage","sensor":1,"time":"2021-10-26T17:42:18.032","measurement":579},
{"metric":"moisture percentage","sensor":1,"time":"2021-10-26T17:42:18.043","measurement":579},
{"metric":"moisture percentage","sensor":1,"time":"2021-10-26T17:42:18.051","measurement":579},
{"metric":"moisture percentage","sensor":1,"time":"2021-10-26T17:42:18.063","measurement":578},
{"metric":"moisture percentage","sensor":1,"time":"2021-10-26T17:42:18.072","measurement":579},
{"metric":"moisture percentage","sensor":1,"time":"2021-10-26T17:42:18.084","measurement":579},
{"metric":"moisture percentage","sensor":1,"time":"2021-10-26T17:42:18.092","measurement":578},
{"metric":"moisture percentage","sensor":1,"time":"2021-10-26T17:42:18.105","measurement":579},
{"metric":"moisture percentage","sensor":1,"time":"2021-10-26T17:42:18.113","measurement":579},
{"metric":"moisture percentage","sensor":1,"time":"2021-10-26T17:42:18.125","measurement":579},
{"metric":"moisture percentage","sensor":1,"time":"2021-10-26T17:42:18.133","measurement":579},
{"metric":"moisture percentage","sensor":1,"time":"2021-10-26T17:42:18.145","measurement":579},
{"metric":"moisture percentage","sensor":1,"time":"2021-10-26T17:42:18.154","measurement":579},
{"metric":"moisture percentage","sensor":1,"time":"2021-10-26T17:42:18.166","measurement":579},
{"metric":"moisture percentage","sensor":1,"time":"2021-10-26T17:42:18.174","measurement":579},
{"metric":"moisture percentage","sensor":1,"time":"2021-10-26T17:42:18.186","measurement":579},
{"metric":"moisture percentage","sensor":1,"time":"2021-10-26T17:42:18.195","measurement":579},
{"metric":"moisture percentage","sensor":1,"time":"2021-10-26T17:42:18.207","measurement":579},
{"metric":"moisture percentage","sensor":1,"time":"2021-10-26T17:42:18.215","measurement":579},
{"metric":"moisture percentage","sensor":1,"time":"2021-10-26T17:42:18.227","measurement":579},
{"metric":"moisture percentage","sensor":1,"time":"2021-10-26T17:42:18.236","measurement":579},
{"metric":"moisture percentage","sensor":1,"time":"2021-10-26T17:42:18.247","measurement":579},
{"metric":"moisture percentage","sensor":1,"time":"2021-10-26T17:42:18.255","measurement":579},
{"metric":"moisture percentage","sensor":1,"time":"2021-10-26T17:42:18.268","measurement":579},
{"metric":"moisture percentage","sensor":1,"time":"2021-10-26T17:42:18.276","measurement":578},
{"metric":"moisture percentage","sensor":1,"time":"2021-10-26T17:42:18.288","measurement":579},
{"metric":"moisture percentage","sensor":1,"time":"2021-10-26T17:42:18.296","measurement":579},
{"metric":"moisture percentage","sensor":1,"time":"2021-10-26T17:42:18.309","measurement":578},
{"metric":"moisture percentage","sensor":1,"time":"2021-10-26T17:42:18.317","measurement":579},
{"metric":"moisture percentage","sensor":1,"time":"2021-10-26T17:42:18.329","measurement":579},
{"metric":"moisture percentage","sensor":1,"time":"2021-10-26T17:42:18.338","measurement":579},
{"metric":"moisture percentage","sensor":1,"time":"2021-10-26T17:42:18.350","measurement":579},
{"metric":"moisture percentage","sensor":1,"time":"2021-10-26T17:42:18.359","measurement":579},
{"metric":"moisture percentage","sensor":1,"time":"2021-10-26T17:42:18.371","measurement":579},
{"metric":"moisture percentage","sensor":1,"time":"2021-10-26T17:42:18.379","measurement":579},
{"metric":"moisture percentage","sensor":1,"time":"2021-10-26T17:42:18.391","measurement":579},
{"metric":"moisture percentage","sensor":1,"time":"2021-10-26T17:42:18.400","measurement":579},
{"metric":"moisture percentage","sensor":1,"time":"2021-10-26T17:42:18.412","measurement":579},
{"metric":"moisture percentage","sensor":1,"time":"2021-10-26T17:42:18.420","measurement":579},
{"metric":"moisture percentage","sensor":1,"time":"2021-10-26T17:42:18.432","measurement":579},
{"metric":"moisture percentage","sensor":1,"time":"2021-10-26T17:42:18.440","measurement":579},
{"metric":"moisture percentage","sensor":1,"time":"2021-10-26T17:42:18.453","measurement":579},
{"metric":"moisture percentage","sensor":1,"time":"2021-10-26T17:42:18.461","measurement":579},
